11  18
1   2   20
1   3   30
1   4   10
1   5   40
2   8   10
2   7   5
3   8   5
3   7   15
3   6   25
4   7   5
4   6   10
5   6   30
8   10  50
8   9   15
7   9   50
6   9   50
10  11  40
9   11  90
